decoupleR: Ensemble of computational methods to infer biological activities from omics data • decoupleR
…
decouple(
    mat = mat,
    network = network,
    .source = "tf",
    .target = "target",
    statistics = c("mlm", "wmean", "ulm", "ora"),
    args = list(
        mlm = list(center=FALSE),
        wmean = list(times=100),
        ulm = list(center=FALSE),
        ora = list(n_up=150, n_bottom=0)
    ),
    consensus_score = TRUE
)
#> # A tibble: 140 × 6
#>    run_id statistic source condition  score p_value
#>     <dbl> <chr>     <chr>  <chr>      <dbl>   <dbl>
#>  1      1 mlm       FOXO4  GSM2753335 2.21   0.0288
#>  2      1 mlm       NFIC   GSM2753335 1.12   0.263 
#>  3      1 mlm       SMAD3  GSM2753335 0.696  0.488 
#>  4      1 mlm       TFAP2A GSM2753335 1.34   0.183 
#>  5      1 mlm       RFXAP  GSM2753335 1.63   0.105 
#>  6      1 mlm       FOXO4  GSM2753336 2.16   0.0325
#>  7      1 mlm       NFIC   GSM2753336 1.16   0.250 
#>  8      1 mlm       SMAD3  GSM2753336 0.882  0.380 
#>  9      1 mlm       TFAP2A GSM2753336 1.56   0.122 
#> 10      1 mlm       RFXAP  GSM2753336 2.31   0.0226
#> # … with 130 more rows
…
