Convert a network to run under the method of interest. — convert_to_ • decoupleR
…
#> $TFAP2A
#>  [1] "ACHE"     "ADM"      "ADRA1A"   "ADRA2B"   "APP"      "BACE1"   
#>  [7] "BCL2"     "CCNB1"    "CDH1"     "CDKN1A"   "CFTR"     "CGA"     
#> [13] "CRABP2"   "CRX"      "CSH1"     "CYP11A1"  "DBH"      "EGFR"    
#> [19] "ERBB2"    "ETS1"     "F2R"      "FAS"      "FMR1"     "FOXA1"   
#> [25] "GALNT3"   "GAST"     "GPX4"     "GUSB"     "HGF"      "HIP1"    
#> [31] "HMOX1"    "HOXA4"    "HSD17B1"  "HTT"      "IGFBP5"   "KIT"     
#> [37] "KRT5"     "L1CAM"    "MIP"      "MMP2"     "MPG"      "MYC"     
#> [43] "NME3"     "NR3C1"    "OAT"      "PENK"     "PLAUR"    "POLD2"   
#> [49] "PRKCA"    "PTGS2"    "PVR"      "S100B"    "SERPINE1" "SLC19A1" 
#> [55] "SMPD1"    "SNAP91"   "SP1"      "SPRY2"    "TAF7"     "TH"      
#> [61] "TIMP2"    "VEGFA"   
#> 
convert_to_wmean(network, tf, target, mor, likelihood)
#> # A tibble: 151 × 4
#>    source target     mor likelihood
#>    <chr>  <chr>    <dbl>      <dbl>
#>  1 FOXO4  BCL2L11      1          1
#>  2 FOXO4  BCL6         1          1
#>  3 FOXO4  CDKN1A       1          1
#>  4 FOXO4  CDKN1B       1          1
#>  5 FOXO4  G6PC         1          1
#>  6 FOXO4  GADD45A      1          1
#>  7 FOXO4  IGFBP1       1          1
#>  8 FOXO4  PCK2         1          1
#>  9 FOXO4  PPARGC1A     1          1
#> 10 FOXO4  RBL2         1          1
#> # … with 141 more rows
…
#> $TFAP2A
#>  [1] "ACHE"     "ADM"      "ADRA1A"   "ADRA2B"   "APP"      "BACE1"   
#>  [7] "BCL2"     "CCNB1"    "CDH1"     "CDKN1A"   "CFTR"     "CGA"     
#> [13] "CRABP2"   "CRX"      "CSH1"     "CYP11A1"  "DBH"      "EGFR"    
#> [19] "ERBB2"    "ETS1"     "F2R"      "FAS"      "FMR1"     "FOXA1"   
#> [25] "GALNT3"   "GAST"     "GPX4"     "GUSB"     "HGF"      "HIP1"    
#> [31] "HMOX1"    "HOXA4"    "HSD17B1"  "HTT"      "IGFBP5"   "KIT"     
#> [37] "KRT5"     "L1CAM"    "MIP"      "MMP2"     "MPG"      "MYC"     
#> [43] "NME3"     "NR3C1"    "OAT"      "PENK"     "PLAUR"    "POLD2"   
#> [49] "PRKCA"    "PTGS2"    "PVR"      "S100B"    "SERPINE1" "SLC19A1" 
#> [55] "SMPD1"    "SNAP91"   "SP1"      "SPRY2"    "TAF7"     "TH"      
#> [61] "TIMP2"    "VEGFA"   
#> 
convert_to_wsum(network, tf, target, mor)
#> # A tibble: 151 × 4
#>    source target     mor likelihood
#>    <chr>  <chr>    <dbl>      <dbl>
#>  1 FOXO4  BCL2L11      1          1
#>  2 FOXO4  BCL6         1          1
#>  3 FOXO4  CDKN1A       1          1
#>  4 FOXO4  CDKN1B       1          1
#>  5 FOXO4  G6PC         1          1
#>  6 FOXO4  GADD45A      1          1
#>  7 FOXO4  IGFBP1       1          1
#>  8 FOXO4  PCK2         1          1
#>  9 FOXO4  PPARGC1A     1          1
#> 10 FOXO4  RBL2         1          1
#> # … with 141 more rows
convert_to_ulm(network, tf, target, mor)
#> # A tibble: 151 × 4
#>    source target     mor likelihood
#>    <chr>  <chr>    <dbl>      <dbl>
#>  1 FOXO4  BCL2L11      1          1
#>  2 FOXO4  BCL6         1          1
#>  3 FOXO4  CDKN1A       1          1
#>  4 FOXO4  CDKN1B       1          1
#>  5 FOXO4  G6PC         1          1
#>  6 FOXO4  GADD45A      1          1
#>  7 FOXO4  IGFBP1       1          1
#>  8 FOXO4  PCK2         1          1
#>  9 FOXO4  PPARGC1A     1          1
#> 10 FOXO4  RBL2         1          1
#> # … with 141 more rows
convert_to_mlm(network, tf, target, mor)
#> # A tibble: 151 × 4
#>    source target     mor likelihood
#>    <chr>  <chr>    <dbl>      <dbl>
#>  1 FOXO4  BCL2L11      1          1
#>  2 FOXO4  BCL6         1          1
#>  3 FOXO4  CDKN1A       1          1
#>  4 FOXO4  CDKN1B       1          1
#>  5 FOXO4  G6PC         1          1
#>  6 FOXO4  GADD45A      1          1
#>  7 FOXO4  IGFBP1       1          1
#>  8 FOXO4  PCK2         1          1
#>  9 FOXO4  PPARGC1A     1          1
#> 10 FOXO4  RBL2         1          1
#> # … with 141 more rows
…
