decouple — decouple • decoupleR
…
    statistics = c("gsva", "mean", "pscira", "scira", "viper"),
    args = list(
        gsva = list(verbose = FALSE),
        mean = list(.mor = "mor", .likelihood = "likelihood"),
        pscira = list(.mor = "mor"),
        scira = list(.mor = "mor"),
        viper = list(
            .mor = "mor",
            .likelihood = "likelihood",
            verbose = FALSE
       )
    )
)

#> # A tibble: 112 x 7
#>    run_id statistic tf    condition    score statistic_time p_value
#>    <chr>  <chr>     <chr> <chr>        <dbl> <drtn>           <dbl>
#>  1 1      gsva      FOXO4 GSM2753335 -0.380  7.132416 secs       NA
#>  2 1      gsva      FOXO4 GSM2753336 -0.300  7.132416 secs       NA
#>  3 1      gsva      FOXO4 GSM2753337  0.239  7.132416 secs       NA
#>  4 1      gsva      FOXO4 GSM2753338  0.0907 7.132416 secs       NA
#>  5 1      gsva      NFIC  GSM2753335 -0.0845 7.132416 secs       NA
#>  6 1      gsva      NFIC  GSM2753336  0.0778 7.132416 secs       NA
#>  7 1      gsva      NFIC  GSM2753337 -0.260  7.132416 secs       NA
#>  8 1      gsva      NFIC  GSM2753338  0.281  7.132416 secs       NA
#>  9 1      gsva      RFXAP GSM2753335 -0.810  7.132416 secs       NA
#> 10 1      gsva      RFXAP GSM2753336 -0.472  7.132416 secs       NA
#> # … with 102 more rows
…
