Rename network — rename_net • decoupleR
…
.likelihood
Deprecated argument. Now it will always be set to 1.

def_mor
Default value for .mor when not provided.

    Examples

inputs_dir <- system.file("testdata", "inputs", package = "decoupleR")
mat <- readRDS(file.path(inputs_dir, "input-expr_matrix.rds"))
network <- readRDS(file.path(inputs_dir, "input-dorothea_genesets.rds"))
rename_net(network, tf, target, mor)
#> # A tibble: 151 × 4
#>    source target     mor likelihood
#>    <chr>  <chr>    <dbl>      <dbl>
#>  1 FOXO4  BCL2L11      1          1
#>  2 FOXO4  BCL6         1          1
#>  3 FOXO4  CDKN1A       1          1
#>  4 FOXO4  CDKN1B       1          1
#>  5 FOXO4  G6PC         1          1
#>  6 FOXO4  GADD45A      1          1
#>  7 FOXO4  IGFBP1       1          1
#>  8 FOXO4  PCK2         1          1
#>  9 FOXO4  PPARGC1A     1          1
#> 10 FOXO4  RBL2         1          1
#> # … with 141 more rows
…
