Weighted Mean (WMEAN) — run_wmean • decoupleR
…
    Examples

inputs_dir <- system.file("testdata", "inputs", package = "decoupleR")

mat <- readRDS(file.path(inputs_dir, "input-expr_matrix.rds"))
network <- readRDS(file.path(inputs_dir, "input-dorothea_genesets.rds"))

run_wmean(mat, network, .source='tf')
#> # A tibble: 60 × 5
#>    statistic  source condition  score p_value
#>    <chr>      <chr>  <chr>      <dbl>   <dbl>
#>  1 corr_wmean FOXO4  GSM2753335  9.13    0.01
#>  2 corr_wmean FOXO4  GSM2753336  9.18    0.01
#>  3 corr_wmean FOXO4  GSM2753337  9.77    0.01
#>  4 corr_wmean FOXO4  GSM2753338  9.84    0.01
#>  5 corr_wmean NFIC   GSM2753335  1.58    0.23
#>  6 corr_wmean NFIC   GSM2753336  1.84    0.2 
#>  7 corr_wmean NFIC   GSM2753337  1.23    0.27
#>  8 corr_wmean NFIC   GSM2753338  1.27    0.28
#>  9 corr_wmean RFXAP  GSM2753335  3.61    0.11
#> 10 corr_wmean RFXAP  GSM2753336  6.51    0.04
#> # … with 50 more rows
…
