Multivariate Decision Trees (MDT) — run_mdt • decoupleR
…
    Examples

inputs_dir <- system.file("testdata", "inputs", package = "decoupleR")

mat <- readRDS(file.path(inputs_dir, "mat.rds"))
net <- readRDS(file.path(inputs_dir, "net.rds"))

run_mdt(mat, net, minsize=0)
#> # A tibble: 72 × 4
#>    statistic source condition score
#>    <chr>     <chr>  <chr>     <dbl>
#>  1 mdt       T1     S01           0
#>  2 mdt       T1     S02           0
#>  3 mdt       T1     S03           0
#>  4 mdt       T1     S04           0
#>  5 mdt       T1     S05           0
#>  6 mdt       T1     S06           0
#>  7 mdt       T1     S07           0
#>  8 mdt       T1     S08           0
#>  9 mdt       T1     S09           0
#> 10 mdt       T1     S10           0
#> # ℹ 62 more rows
…
