Univariate Linear Model (ULM) — run_ulm • decoupleR
…
    Examples

inputs_dir <- system.file("testdata", "inputs", package = "decoupleR")

mat <- readRDS(file.path(inputs_dir, "mat.rds"))
net <- readRDS(file.path(inputs_dir, "net.rds"))

run_ulm(mat, net, minsize=0)
#> # A tibble: 72 × 5
#>    statistic source condition score  p_value
#>    <chr>     <chr>  <chr>     <dbl>    <dbl>
#>  1 ulm       T1     S01        4.21 0.00180 
#>  2 ulm       T1     S02        4.07 0.00224 
#>  3 ulm       T1     S03        3.85 0.00319 
#>  4 ulm       T1     S04        4.60 0.000979
#>  5 ulm       T1     S05        3.90 0.00298 
#>  6 ulm       T1     S06        3.66 0.00442 
#>  7 ulm       T1     S07        4.31 0.00153 
#>  8 ulm       T1     S08        4.65 0.000902
#>  9 ulm       T1     S09        4.49 0.00117 
#> 10 ulm       T1     S10        4.07 0.00225 
#> # ℹ 62 more rows
…
