Weighted Sum (WSUM) — run_wsum • decoupleR
…
    Examples

inputs_dir <- system.file("testdata", "inputs", package = "decoupleR")

mat <- readRDS(file.path(inputs_dir, "mat.rds"))
net <- readRDS(file.path(inputs_dir, "net.rds"))

run_wsum(mat, net, minsize=0)
#> # A tibble: 216 × 5
#>    statistic source condition score p_value
#>    <chr>     <chr>  <chr>     <dbl>   <dbl>
#>  1 corr_wsum T1     S01        40.4    0.02
#>  2 corr_wsum T1     S02        39.7    0.02
#>  3 corr_wsum T1     S03        41.0    0.02
#>  4 corr_wsum T1     S04        42.3    0.02
#>  5 corr_wsum T1     S05        38.9    0.02
#>  6 corr_wsum T1     S06        38.3    0.02
#>  7 corr_wsum T1     S07        40.0    0.02
#>  8 corr_wsum T1     S08        40.0    0.02
#>  9 corr_wsum T1     S09        41.2    0.02
#> 10 corr_wsum T1     S10        37.2    0.02
#> # ℹ 206 more rows
…
