Virtual Inference of Protein-activity by Enriched Regulon analysis (VIPER) — run_viper • decoupleR
…
    Examples

inputs_dir <- system.file("testdata", "inputs", package = "decoupleR")

mat <- readRDS(file.path(inputs_dir, "mat.rds"))
net <- readRDS(file.path(inputs_dir, "net.rds"))

run_viper(mat, net, minsize=0, verbose = FALSE)
#> # A tibble: 72 × 5
#>    statistic source condition score p_value
#>    <chr>     <chr>  <chr>     <dbl>   <dbl>
#>  1 viper     T1     S01        1.45  0.147 
#>  2 viper     T1     S02        1.45  0.147 
#>  3 viper     T1     S03        1.45  0.147 
#>  4 viper     T1     S04        1.84  0.0662
#>  5 viper     T1     S05        1.22  0.224 
#>  6 viper     T1     S06        1.25  0.209 
#>  7 viper     T1     S07        1.62  0.106 
#>  8 viper     T1     S08        1.76  0.0783
#>  9 viper     T1     S09        1.62  0.106 
#> 10 viper     T1     S10        1.62  0.106 
#> # ℹ 62 more rows
…
