Fast Gene Set Enrichment Analysis (FGSEA) — run_fgsea • decoupleR
…
    Examples

inputs_dir <- system.file("testdata", "inputs", package = "decoupleR")

mat <- readRDS(file.path(inputs_dir, "mat.rds"))
net <- readRDS(file.path(inputs_dir, "net.rds"))

run_fgsea(mat, net, minsize=0, nproc=1)
#> # A tibble: 144 × 5
#>    statistic  source condition   score p_value
#>    <chr>      <chr>  <chr>       <dbl>   <dbl>
#>  1 fgsea      T1     S01         0.889  0.0755
#>  2 norm_fgsea T1     S01         1.24   0.0755
#>  3 fgsea      T2     S01        -0.667  0.548 
#>  4 norm_fgsea T2     S01        -1.11   0.548 
#>  5 fgsea      T3     S01        -0.75   0.01  
#>  6 norm_fgsea T3     S01       Inf      0.01  
#>  7 fgsea      T1     S02         0.889  0.0764
#>  8 norm_fgsea T1     S02         1.29   0.0764
#>  9 fgsea      T2     S02         0      0.977 
#> 10 norm_fgsea T2     S02         0      0.977 
#> # … with 134 more rows
…
