Gene Set Variation Analysis (GSVA) — run_gsva • decoupleR
…
    Examples

inputs_dir <- system.file("testdata", "inputs", package = "decoupleR")

mat <- readRDS(file.path(inputs_dir, "mat.rds"))
net <- readRDS(file.path(inputs_dir, "net.rds"))

run_gsva(mat, net, minsize=1, verbose = FALSE)
#> # A tibble: 72 × 4
#>    statistic source condition score
#>    <chr>     <chr>  <chr>     <dbl>
#>  1 gsva      T1     S01       0.222
#>  2 gsva      T1     S02       0.556
#>  3 gsva      T1     S03       0.667
#>  4 gsva      T1     S04       0.778
#>  5 gsva      T1     S05       0.556
#>  6 gsva      T1     S06       0.667
#>  7 gsva      T1     S07       0.667
#>  8 gsva      T1     S08       0.667
#>  9 gsva      T1     S09       0.889
#> 10 gsva      T1     S10       0.444
#> # ℹ 62 more rows
…
