Introduction • decoupleR
…
Running methods

Individual methods

As an example, let’s first run the Gene Set Enrichment Analysis
method (gsea), one of the most well-known statistics:

res_gsea <- run_fgsea(mat, network, .source='source', .target='target', nproc=1, minsize = 0)
res_gsea
#> # A tibble: 144 × 5
#>    statistic  source condition   score p_value
#>    <chr>      <chr>  <chr>       <dbl>   <dbl>
#>  1 fgsea      T1     S01         0.889  0.0755
#>  2 norm_fgsea T1     S01         1.24   0.0755
#>  3 fgsea      T2     S01        -0.667  0.548 
#>  4 norm_fgsea T2     S01        -1.11   0.548 
#>  5 fgsea      T3     S01        -0.75   0.01  
#>  6 norm_fgsea T3     S01       Inf      0.01  
#>  7 fgsea      T1     S02         0.889  0.0764
#>  8 norm_fgsea T1     S02         1.29   0.0764
#>  9 fgsea      T2     S02         0      0.977 
#> 10 norm_fgsea T2     S02         0      0.977 
#> # … with 134 more rows
…
score: inferred biological activity.

p_value: if available, significance of the inferred
activity.

In the case of gsea, it returns a simple estimate of
activities (fgsea), a normalized estimate
(norm_fgsea) and p-values after doing permutations.

Other methods can return different things, for example Univariate
Linear Model (ulm):

res_ulm <- run_ulm(mat, network, .source='source', .target='target', .mor='mor', minsize = 0)
res_ulm
#> # A tibble: 72 × 5
#>    statistic source condition score  p_value
#>    <chr>     <chr>  <chr>     <dbl>    <dbl>
#>  1 ulm       T1     S01        4.21 0.00180 
#>  2 ulm       T1     S02        4.07 0.00224 
#>  3 ulm       T1     S03        3.85 0.00319 
#>  4 ulm       T1     S04        4.60 0.000979
#>  5 ulm       T1     S05        3.90 0.00298 
#>  6 ulm       T1     S06        3.66 0.00442 
#>  7 ulm       T1     S07        4.31 0.00153 
#>  8 ulm       T1     S08        4.65 0.000902
#>  9 ulm       T1     S09        4.49 0.00117 
#> 10 ulm       T1     S10        4.07 0.00225 
#> # … with 62 more rows
…
By default, deocuple runs only the top performer methods
in our benchmark (mlm, ulm and
wsum), and estimates a consensus score across them.
Specific arguments to specific methods can be passed using the variable
args. For more information check
?decouple.

res_decouple <- decouple(mat, 
                         network, 
                         .source='source', 
                         .target='target',
                         minsize = 0)
res_decouple
#> # A tibble: 432 × 6
#>    run_id statistic source condition   score p_value
#>     <dbl> <chr>     <chr>  <chr>       <dbl>   <dbl>
#>  1      1 mlm       T1     S01        3.52   0.00781
#>  2      1 mlm       T2     S01       -1.13   0.290  
#>  3      1 mlm       T3     S01       -0.247  0.811  
#>  4      1 mlm       T1     S02        3.48   0.00831
#>  5      1 mlm       T2     S02       -0.213  0.837  
#>  6      1 mlm       T3     S02       -0.353  0.733  
#>  7      1 mlm       T1     S03        3.15   0.0135 
#>  8      1 mlm       T2     S03       -0.638  0.541  
#>  9      1 mlm       T3     S03        0.0749 0.942  
#> 10      1 mlm       T1     S04        3.82   0.00512
#> # … with 422 more rows
…
