Pathway activity inference in bulk RNA-seq • decoupleR
…
Trail: induces apoptosis.

VEGF: mediates angiogenesis, vascular permeability,
and cell migration.

WNT: regulates organ morphogenesis during
development and tissue repair.

To access it we can use decoupleR:

net <- get_progeny(organism = 'human', top = 500)
net
#> # A tibble: 7,000 × 4
#>    source   target  weight  p_value
#>    <chr>    <chr>    <dbl>    <dbl>
#>  1 Androgen TMPRSS2  11.5  2.38e-47
#>  2 Androgen NKX3-1   10.6  2.21e-44
#>  3 Androgen MBOAT2   10.5  4.63e-44
#>  4 Androgen KLK2     10.2  1.94e-40
#>  5 Androgen SARG     11.4  2.79e-40
#>  6 Androgen SLC38A4   7.36 1.25e-39
#>  7 Androgen MTMR9     6.13 2.53e-38
#>  8 Androgen ZBTB16   10.6  1.57e-36
#>  9 Androgen KCNN2     9.47 7.71e-36
#> 10 Androgen OPRK1    -5.63 1.11e-35
#> # ℹ 6,990 more rows
…
To run decoupleR methods, we need an input matrix
(mat), an input prior knowledge network/resource
(net), and the name of the columns of net that we want to
use.

# Run mlm
sample_acts <- run_mlm(mat=counts, net=net, .source='source', .target='target',
                  .mor='weight', minsize = 5)
sample_acts
#> # A tibble: 84 × 5
#>    statistic source   condition       score  p_value
#>    <chr>     <chr>    <chr>           <dbl>    <dbl>
#>  1 mlm       Androgen PANC1.WT.Rep1 -0.692  0.489   
#>  2 mlm       EGFR     PANC1.WT.Rep1 -0.0414 0.967   
#>  3 mlm       Estrogen PANC1.WT.Rep1 -0.361  0.718   
#>  4 mlm       Hypoxia  PANC1.WT.Rep1 -2.06   0.0393  
#>  5 mlm       JAK-STAT PANC1.WT.Rep1 -0.166  0.868   
#>  6 mlm       MAPK     PANC1.WT.Rep1 -0.509  0.611   
#>  7 mlm       NFkB     PANC1.WT.Rep1 -2.84   0.00447 
#>  8 mlm       PI3K     PANC1.WT.Rep1  3.53   0.000423
#>  9 mlm       TGFb     PANC1.WT.Rep1 -1.43   0.152   
#> 10 mlm       TNFa     PANC1.WT.Rep1  2.06   0.0395  
#> # ℹ 74 more rows
…
