Pathway activity inference from scRNA-seq • decoupleR
…
PROGENy model

PROGENy is a
comprehensive resource containing a curated collection of pathways and
their target genes, with weights for each interaction. For this example
we will use the human weights (mouse is also available) and we will use
the top 100 responsive genes ranked by p-value. We can use
decoupleR to retrieve it from OmniPath:

net <- get_progeny(organism = 'human', top = 100)
net
#> # A tibble: 1,400 × 4
#>    source   target  weight  p_value
#>    <chr>    <chr>    <dbl>    <dbl>
#>  1 Androgen TMPRSS2  11.5  2.38e-47
#>  2 Androgen NKX3-1   10.6  2.21e-44
#>  3 Androgen MBOAT2   10.5  4.63e-44
#>  4 Androgen KLK2     10.2  1.94e-40
#>  5 Androgen SARG     11.4  2.79e-40
#>  6 Androgen SLC38A4   7.36 1.25e-39
#>  7 Androgen MTMR9     6.13 2.53e-38
#>  8 Androgen ZBTB16   10.6  1.57e-36
#>  9 Androgen KCNN2     9.47 7.71e-36
#> 10 Androgen OPRK1    -5.63 1.11e-35
#> # … with 1,390 more rows
…
To run decoupleR methods, we need an input matrix
(mat), an input prior knowledge network/resource
(net), and the name of the columns of net that we want to
use.

# Extract the normalized log-transformed counts
mat <- as.matrix(data@assays$RNA@data)

# Run wmean
acts <- run_wmean(mat=mat, net=net, .source='source', .target='target',
                  .mor='weight', times = 100, minsize = 5)
acts
#> # A tibble: 6,720 × 5
#>    statistic  source   condition           score p_value
#>    <chr>      <chr>    <chr>               <dbl>   <dbl>
#>  1 corr_wmean Androgen AAACATACAACCAC-1  0.00321  0.94  
#>  2 corr_wmean Androgen AAACGCTGTTTCTG-1 -0.0147   0.34  
#>  3 corr_wmean Androgen AACCTTTGGACGGA-1  0        0.0800
#>  4 corr_wmean Androgen AACGCCCTCGTACA-1  0        0.0200
#>  5 corr_wmean Androgen AACGTCGAGTATCG-1  0.0242   0.140 
#>  6 corr_wmean Androgen AACTCACTCAAGCT-1  0.00672  0.0800
#>  7 corr_wmean Androgen AAGATGGAAAACAG-1  0.0250   0.62  
#>  8 corr_wmean Androgen AAGATTACCGCCTT-1  0.00849  0.86  
#>  9 corr_wmean Androgen AAGCCATGAACTGC-1  0.0314   0.58  
#> 10 corr_wmean Androgen AAGGTCTGCAGATC-1  0        0.5   
#> # … with 6,710 more rows
…
