Transcription factor activity inference in bulk RNA-seq • decoupleR
…
For this example we will use the human version (mouse and rat are
also available). We can use decoupleR to retrieve it from
OmniPath. The argument split_complexes keeps
complexes or splits them into subunits, by default we recommend to keep
complexes together.

net <- get_collectri(organism='human', split_complexes=FALSE)
net
#> # A tibble: 43,178 × 3
#>    source target   mor
#>    <chr>  <chr>  <dbl>
#>  1 MYC    TERT       1
#>  2 SPI1   BGLAP      1
#>  3 SMAD3  JUN        1
#>  4 SMAD4  JUN        1
#>  5 STAT5A IL2        1
#>  6 STAT5B IL2        1
#>  7 RELA   FAS        1
#>  8 WT1    NR0B1      1
#>  9 NR0B2  CASP1      1
#> 10 SP1    ALDOA      1
#> # ℹ 43,168 more rows
…
To run decoupleR methods, we need an input matrix
(mat), an input prior knowledge network/resource
(net), and the name of the columns of net that we want to
use.

# Run ulm
sample_acts <- run_ulm(mat=counts, net=net, .source='source', .target='target',
                  .mor='mor', minsize = 5)
sample_acts
#> # A tibble: 3,480 × 5
#>    statistic source condition           score p_value
#>    <chr>     <chr>  <chr>               <dbl>   <dbl>
#>  1 ulm       ABL1   PANC1.FOXA2KO.Rep1 -0.428  0.669 
#>  2 ulm       ABL1   PANC1.FOXA2KO.Rep2 -0.104  0.917 
#>  3 ulm       ABL1   PANC1.FOXA2KO.Rep3  0.335  0.738 
#>  4 ulm       ABL1   PANC1.WT.Rep1       0.142  0.887 
#>  5 ulm       ABL1   PANC1.WT.Rep2      -0.344  0.731 
#>  6 ulm       ABL1   PANC1.WT.Rep3      -0.523  0.601 
#>  7 ulm       AHR    PANC1.FOXA2KO.Rep1  1.58   0.113 
#>  8 ulm       AHR    PANC1.FOXA2KO.Rep2  1.70   0.0885
#>  9 ulm       AHR    PANC1.FOXA2KO.Rep3  1.85   0.0640
#> 10 ulm       AHR    PANC1.WT.Rep1       1.38   0.169 
#> # ℹ 3,470 more rows
…
We can also infer TF activities from the t-values of the DEGs between
KO and WT:

# Run ulm
contrast_acts <- run_ulm(mat=deg[, 't', drop=FALSE], net=net, .source='source', .target='target',
                  .mor='mor', minsize = 5)
contrast_acts
#> # A tibble: 580 × 5
#>    statistic source condition   score p_value
#>    <chr>     <chr>  <chr>       <dbl>   <dbl>
#>  1 ulm       ABL1   t          1.08    0.280 
#>  2 ulm       AHR    t          1.19    0.234 
#>  3 ulm       AIRE   t         -0.155   0.877 
#>  4 ulm       AP1    t          2.42    0.0154
#>  5 ulm       APEX1  t          0.877   0.380 
#>  6 ulm       AR     t         -0.264   0.792 
#>  7 ulm       ARID1A t         -0.236   0.813 
#>  8 ulm       ARID3A t          1.85    0.0639
#>  9 ulm       ARID3B t          1.24    0.215 
#> 10 ulm       ARID4A t         -0.0674  0.946 
#> # ℹ 570 more rows
…
