Transcription factor activity inference from scRNA-seq • decoupleR
…
For this example we will use the human version (mouse and rat are
also available). We can use decoupleR to retrieve it from
OmniPath. The argument split_complexes keeps
complexes or splits them into subunits, by default we recommend to keep
complexes together.

net <- decoupleR::get_collectri(organism = 'human', 
                                split_complexes = FALSE)

net
#> # A tibble: 43,178 × 3
#>    source target   mor
#>    <chr>  <chr>  <dbl>
#>  1 MYC    TERT       1
#>  2 SPI1   BGLAP      1
#>  3 SMAD3  JUN        1
#>  4 SMAD4  JUN        1
#>  5 STAT5A IL2        1
#>  6 STAT5B IL2        1
#>  7 RELA   FAS        1
#>  8 WT1    NR0B1      1
#>  9 NR0B2  CASP1      1
#> 10 SP1    ALDOA      1
#> # ℹ 43,168 more rows
…
# Extract the normalized log-transformed counts
mat <- as.matrix(data@assays$RNA@data)

# Run ulm
acts <- decoupleR::run_ulm(mat = mat, 
                           net = net, 
                           .source = 'source', 
                           .target = 'target',
                           .mor='mor', 
                           minsize = 5)

acts
#> # A tibble: 80,640 × 5
#>    statistic source condition         score p_value
#>    <chr>     <chr>  <chr>             <dbl>   <dbl>
#>  1 ulm       ABL1   AAACATACAACCAC-1  2.64  0.00820
#>  2 ulm       ABL1   AAACGCTGTTTCTG-1  0.893 0.372  
#>  3 ulm       ABL1   AACCTTTGGACGGA-1  2.79  0.00525
#>  4 ulm       ABL1   AACGCCCTCGTACA-1  1.80  0.0721 
#>  5 ulm       ABL1   AACGTCGAGTATCG-1  1.63  0.104  
#>  6 ulm       ABL1   AACTCACTCAAGCT-1  1.71  0.0871 
#>  7 ulm       ABL1   AAGATGGAAAACAG-1  1.12  0.264  
#>  8 ulm       ABL1   AAGATTACCGCCTT-1  2.43  0.0151 
#>  9 ulm       ABL1   AAGCCATGAACTGC-1  1.62  0.105  
#> 10 ulm       ABL1   AAGGTCTGCAGATC-1 -0.292 0.771  
#> # ℹ 80,630 more rows
…
